{
	"id": "31c5bc06-78eb-44fd-b6c8-43a5e3e7f96d",
	"name": "Todo App Local",
	"values": [
		{
			"key": "url",
			"value": "http://localhost:3000",
			"enabled": true
		},
		{
			"key": "x-auth",
			"value": null,
			"enabled": true
		},
		{
			"key": "todoId",
			"value": "",
			"enabled": true
		}
	],
	"_postman_variable_scope": "environment",
	"_postman_exported_at": "2021-03-17T23:59:48.131Z",
	"_postman_exported_using": "Postman/8.0.7"
}